Week 2 Data Cleaning / Wrangling | MATH6200
…
## -- Column specification --------------------------------------------------------
## Delimiter: ","
## chr  (2): song, artist
## dbl  (4): rank, last-week, peak-rank, weeks-on-board
## date (1): date

## 
## i Use `spec()` to retrieve the full column specification for this data.
## i Specify the column types or set `show_col_types = FALSE` to quiet this message.

music_df = billboard100 %>%
  select(date:artist, weeks_popular='weeks-on-board')
music_df

## # A tibble: 330,087 x 5
##    date        rank song          artist                           weeks_popular
##    <date>     <dbl> <chr>         <chr>                                    <dbl>
##  1 2021-11-06     1 Easy On Me    Adele                                        3
##  2 2021-11-06     2 Stay          The Kid LAROI & Justin Bieber               16
##  3 2021-11-06     3 Industry Baby Lil Nas X & Jack Harlow                     14
##  4 2021-11-06     4 Fancy Like    Walker Hayes                                19
##  5 2021-11-06     5 Bad Habits    Ed Sheeran                                  18
##  6 2021-11-06     6 Way 2 Sexy    Drake Featuring Future & Young ~             8
##  7 2021-11-06     7 Shivers       Ed Sheeran                                   7
##  8 2021-11-06     8 Good 4 U      Olivia Rodrigo                              24
##  9 2021-11-06     9 Need To Know  Doja Cat                                    20
## 10 2021-11-06    10 Levitating    Dua Lipa                                    56
## # ... with 330,077 more rows
…
